\relax 
\providecommand\hyper@newdestlabel[2]{}
\providecommand\HyperFirstAtBeginDocument{\AtBeginDocument}
\HyperFirstAtBeginDocument{\ifx\hyper@anchor\@undefined
\global\let\oldcontentsline\contentsline
\gdef\contentsline#1#2#3#4{\oldcontentsline{#1}{#2}{#3}}
\global\let\oldnewlabel\newlabel
\gdef\newlabel#1#2{\newlabelxx{#1}#2}
\gdef\newlabelxx#1#2#3#4#5#6{\oldnewlabel{#1}{{#2}{#3}}}
\AtEndDocument{\ifx\hyper@anchor\@undefined
\let\contentsline\oldcontentsline
\let\newlabel\oldnewlabel
\fi}
\fi}
\global\let\hyper@last\relax 
\gdef\HyperFirstAtBeginDocument#1{#1}
\providecommand\HyField@AuxAddToFields[1]{}
\providecommand\HyField@AuxAddToCoFields[2]{}
\@nameuse{bbl@beforestart}
\catcode `"\active 
\catcode `-\active 
\citation{Impagliazzo1999}
\citation{Bhattacharjee2017}
\citation{Loviskova2015}
\citation{Fu2018}
\citation{Bhattacharjee2017}
\babel@aux{czech}{}
\@writefile{toc}{\contentsline {section}{\numberline {1}Úvod}{1}{section.1}\protected@file@percent }
\@writefile{toc}{\contentsline {section}{\numberline {2}SAT řešiče}{1}{section.2}\protected@file@percent }
\@writefile{toc}{\contentsline {section}{\numberline {3}Cíle}{1}{section.3}\protected@file@percent }
\citation{Bhattacharjee2017}
\citation{Bhattacharjee2017}
\citation{Bhattacharjee2017}
\citation{Bhattacharjee2017}
\@writefile{toc}{\contentsline {section}{\numberline {4}Genetický Algoritmus}{2}{section.4}\protected@file@percent }
\@writefile{toc}{\contentsline {subsection}{\numberline {4.1}Účelová funkce}{2}{subsection.4.1}\protected@file@percent }
\@writefile{toc}{\contentsline {subsection}{\numberline {4.2}Nastavení parametrů}{2}{subsection.4.2}\protected@file@percent }
\@writefile{toc}{\contentsline {subsection}{\numberline {4.3}Křížení}{2}{subsection.4.3}\protected@file@percent }
\@writefile{toc}{\contentsline {subsection}{\numberline {4.4}Mutace}{2}{subsection.4.4}\protected@file@percent }
\citation{Bhattacharjee2017}
\citation{Fu2018}
\citation{satlibbench}
\citation{Bhattacharjee2017}
\citation{Loviskova2015}
\citation{Fu2018}
\citation{satlibbench}
\@writefile{toc}{\contentsline {section}{\numberline {5}Implementace}{3}{section.5}\protected@file@percent }
\@writefile{toc}{\contentsline {section}{\numberline {6}Experimenty}{3}{section.6}\protected@file@percent }
\@writefile{toc}{\contentsline {subsection}{\numberline {6.1}Instance}{3}{subsection.6.1}\protected@file@percent }
\newlabel{subsect_instance}{{6.1}{3}{Instance}{subsection.6.1}{}}
\newlabel{subsect_instance@cref}{{[subsection][1][6]6.1}{[1][3][]3}}
\@writefile{toc}{\contentsline {subsection}{\numberline {6.2}Náhodné splnitelné instance}{3}{subsection.6.2}\protected@file@percent }
\newlabel{fig:randomsatinst}{{6.2}{4}{Náhodné splnitelné instance}{subsection.6.2}{}}
\newlabel{fig:randomsatinst@cref}{{[subsection][2][6]6.2}{[1][3][]4}}
\@writefile{lof}{\contentsline {figure}{\numberline {1}{\ignorespaces Průměrná relativní chyba jednotlivých algoritmů pro splnitelné instance}}{4}{figure.1}\protected@file@percent }
\@writefile{lof}{\contentsline {figure}{\numberline {2}{\ignorespaces Naměřené časy pro splnitelné instance, celé datasety}}{4}{figure.2}\protected@file@percent }
\citation{satlibbench}
\@writefile{lof}{\contentsline {figure}{\numberline {3}{\ignorespaces Naměřené časy pro splnitelné instance, splnitelné případy}}{5}{figure.3}\protected@file@percent }
\@writefile{lof}{\contentsline {figure}{\numberline {4}{\ignorespaces Naměřené časy pro splnitelné instance, nesplnitelné případy}}{5}{figure.4}\protected@file@percent }
\@writefile{toc}{\contentsline {subsection}{\numberline {6.3}Nesplnitelné instance}{5}{subsection.6.3}\protected@file@percent }
\@writefile{lof}{\contentsline {figure}{\numberline {5}{\ignorespaces }}{5}{figure.5}\protected@file@percent }
\newlabel{fig:randomunsatinst}{{5}{5}{}{figure.5}{}}
\newlabel{fig:randomunsatinst@cref}{{[figure][5][]5}{[1][5][]5}}
\@writefile{lof}{\contentsline {figure}{\numberline {6}{\ignorespaces Průměrná relativní chyba jednotlivých algoritmů pro nesplnitelné instance}}{6}{figure.6}\protected@file@percent }
\@writefile{lof}{\contentsline {figure}{\numberline {7}{\ignorespaces Naměřené časy pro nesplnitelné instance, celé datasety}}{6}{figure.7}\protected@file@percent }
\@writefile{toc}{\contentsline {subsection}{\numberline {6.4}Poměr počtu klauzulí a počtu proměnných}{6}{subsection.6.4}\protected@file@percent }
\newlabel{fig:ratioinst}{{6.4}{6}{Poměr počtu klauzulí a počtu proměnných}{subsection.6.4}{}}
\newlabel{fig:ratioinst@cref}{{[subsection][4][6]6.4}{[1][6][]6}}
\citation{satlibbench}
\@writefile{lof}{\contentsline {figure}{\numberline {8}{\ignorespaces Naměřené časy pro různý počet klauzulí a $n=100$}}{7}{figure.8}\protected@file@percent }
\@writefile{toc}{\contentsline {subsection}{\numberline {6.5}Backbone controlled instance}{7}{subsection.6.5}\protected@file@percent }
\bibstyle{acm}
\bibdata{references}
\bibcite{satlibbench}{1}
\newlabel{fig:controledbbinst}{{6.5}{8}{Backbone controlled instance}{thm.4}{}}
\newlabel{fig:controledbbinst@cref}{{[subsection][5][6]6.5}{[1][7][]8}}
\@writefile{lof}{\contentsline {figure}{\numberline {9}{\ignorespaces Naměřené časy pro různou velikost páteře $n=100,m=403$}}{8}{figure.9}\protected@file@percent }
\@writefile{toc}{\contentsline {section}{\numberline {7}Závěr}{8}{section.7}\protected@file@percent }
\bibcite{Bhattacharjee2017}{2}
\bibcite{Fu2018}{3}
\bibcite{Impagliazzo1999}{4}
\bibcite{Loviskova2015}{5}
