opt,time
200,16225492
200,14929137
200,16674292
200,18512720
200,18883919
200,19818991
200,20556428
200,14495380
200,12538377
200,14266506
200,10820725
200,14387435
200,17133135
200,13977820
200,15448290
200,13939472
200,11419594
200,13033004
200,9652871
200,19309281
199,101488051
200,11527743
200,13534113
200,10509473
200,18939618
200,10014593
200,13484624
199,99968039
200,15260044
200,16171829
200,11367393
200,15290809
200,19124508
200,65175198
200,13030849
200,8473335
200,11815436
200,10256646
200,15238302
200,13196991
200,19516457
200,15065129
199,105458699
200,18825521
200,20314572
200,17226827
200,13554229
200,23503679
200,12948053
200,15467984
200,18521098
200,15424240
200,16338404
200,14169443
200,14378091
200,14833131
200,11853028
200,16459628
200,12546585
200,12161033
200,9930556
200,13605993
200,8561857
200,14170771
200,10225987
200,14631539
200,16744711
200,14412403
200,9043380
200,9885792
200,12528802
200,9782946
200,14785394
200,18803677
200,15047299
200,16460324
200,15034733
200,13655393
200,12369266
200,9520140
200,18463338
200,12264097
200,14737714
200,14836631
200,13737981
200,18000973
200,11496686
200,22353989
200,8883859
200,11835511
200,11913481
200,11117100
200,15020930
200,15105743
200,13174193
200,13945643
200,14531285
200,17233762
200,28769409
200,18261347
