opt,time
398,173289389
398,172516824
397,169802937
398,172210751
398,172077654
401,169413583
402,166656694
401,168863585
401,168526014
400,168059600
398,168114743
399,165084666
399,164405785
399,173919920
400,164806095
398,168413722
401,166341140
400,169057187
399,168365436
397,164966470
400,164882426
400,164313374
397,171095873
399,170262065
400,170163199
397,164500230
399,166866859
401,169650858
399,171383389
398,171415876
396,168940792
397,173045592
398,166741805
398,169297237
399,164501915
401,165164971
399,169530355
398,167871923
399,177912905
397,163403066
398,167574828
400,162564558
400,171826554
399,161878330
398,167719369
398,168689063
398,162178696
399,171603248
396,171317125
398,169422672
400,171142448
399,176942505
398,179005544
398,183594922
399,176414225
400,170779657
397,177663516
397,173098331
396,176792469
401,170147780
398,172385847
398,167790709
402,170292968
399,164320584
398,176126668
398,170481071
399,174389577
397,168155360
400,169174694
397,168027139
397,171973832
398,166731291
399,174455826
398,174153182
396,171666156
399,176089355
399,168778105
397,168045329
398,170917702
399,168888898
398,167347206
395,170340615
398,170060104
399,169894858
401,168613768
400,163795569
397,176136288
400,168459358
398,166910533
396,167872517
399,172303680
400,170381243
400,171137729
399,165681281
401,168005994
397,175311986
398,167817719
397,169302634
399,167036664
400,164900402
394,172443258
399,164090290
395,169391643
400,164268453
401,168458885
398,171647276
399,165769070
399,173624557
402,168616234
399,165427305
397,165855525
398,169472263
399,173260886
398,176550448
400,167177862
399,170140296
399,170520916
400,163341542
398,166175398
398,166374383
400,167745029
398,166419307
399,165824779
398,159716176
397,169762729
400,163791489
398,168115780
398,171133748
400,167947911
399,168525442
398,165911369
401,166175812
398,167624753
400,170851200
400,167311823
399,168917489
398,166791809
398,166449186
399,171427441
400,165711338
398,164475044
397,164332356
400,166133575
399,167068824
398,176883244
402,161229324
398,166753411
402,160440129
398,164577270
399,172125894
400,170025564
400,165752760
400,168221011
400,164239535
401,161693732
398,164184538
400,170965934
400,175415381
398,172301022
400,164369085
396,170800482
398,162551903
399,166008316
398,168206117
398,169095123
396,167714456
399,165053353
400,168239334
398,163522478
399,167158184
399,167367567
399,168616249
398,166426544
398,164502635
400,166107962
398,167608511
399,169710083
401,166673636
397,174273999
398,173044567
398,168855395
402,167497474
401,178093196
400,162593398
398,165778143
398,170090431
400,169738921
398,169564343
402,171908474
401,164229994
397,164814824
401,169280134
399,164574461
400,166104662
400,170053098
398,172789834
399,167068923
398,168157645
399,167105020
400,180629930
397,181932434
399,175190430
399,173409916
399,166602508
402,165650281
400,167040159
399,166492478
399,173905122
401,171995174
400,174551446
400,165684023
398,166325127
400,162815690
399,165437707
400,165592561
399,169717496
397,162089264
397,166575394
398,170353533
396,166965586
398,169470610
402,166774666
401,171895478
399,166992706
401,173626071
396,172523121
400,162990723
400,165764625
397,168498331
400,175009280
399,167030768
398,170947713
395,174585528
399,168582947
398,169417542
398,168498905
401,166288294
400,168683200
398,169389277
400,172346636
397,166893813
401,167857233
401,172541633
398,162424285
398,168526825
399,168999034
399,175226565
397,168530392
401,171229007
396,173479080
399,164873355
396,169307025
397,165243072
400,167160374
400,164334284
399,166865817
399,168109293
400,167365254
399,167957074
397,163114621
398,166564971
398,168467014
401,168973485
397,165201787
399,172288115
394,180267571
399,165847131
399,169073184
401,171305606
398,175521150
398,169890640
398,169898978
400,167803844
399,175568996
395,171834279
397,169882039
399,171885346
395,165704816
400,167535683
401,168299798
397,164064066
400,171577688
399,177783630
398,164705061
399,168667953
399,169583852
401,167790116
395,168757872
398,167238913
398,169363300
400,167591604
397,170352916
396,168944572
400,170417075
401,173442915
398,161954261
401,170564623
398,173450833
399,164816706
398,163382889
398,165809802
398,164528863
399,166436897
398,169691658
401,172318927
397,169895747
399,164514644
399,169670996
401,171888729
399,168142392
395,169624728
398,171050178
398,169537326
396,173253624
400,174004725
400,171849743
398,166515306
397,169095045
399,176200930
398,171373408
399,169165357
399,180411293
397,175191979
397,172187574
398,167029233
397,173182492
398,173097271
399,174239362
399,164670257
399,172572305
398,159793111
398,173794679
394,167481864
401,167930149
399,171742717
399,170392287
396,166889186
397,174101525
399,168446028
401,167403504
397,169207234
399,172296658
400,170055775
399,172143780
400,170373179
397,168894918
398,166203820
400,170626042
400,175086375
398,169539844
398,171765718
400,172334076
399,165293654
400,162976159
397,165439695
398,177005160
399,173281523
400,168818719
398,169638408
397,177690900
401,166482283
397,171931272
397,171036555
399,170613729
396,169272030
398,172149859
398,169415879
397,172754071
399,167308999
396,165868948
399,173385818
398,172716028
399,171865790
396,168395313
399,166267626
400,170022905
399,163478470
399,163659135
398,168645606
398,164910401
398,165939414
397,172638622
399,164568650
399,171836324
398,167121947
399,167277410
401,165267410
398,171029052
397,168956475
399,171186408
400,169490679
397,170018810
399,171119332
398,171499942
399,169340867
399,177243419
399,166705174
398,164621495
396,167174856
400,169298651
399,173537762
396,170150766
402,174726405
401,168515840
397,173495006
397,164517929
399,176382556
396,168463060
402,170069966
397,162368930
399,167902731
398,162126795
399,158681760
400,168502137
399,169444217
399,168020658
399,167373492
397,168996821
398,173018880
401,166578293
399,168251543
395,171305016
400,166235027
401,169863823
401,162723078
398,167086709
398,172822053
401,165142801
401,163233767
399,172196743
398,165259356
399,163955926
400,164925734
400,167521190
398,167463602
397,168827611
398,163376205
399,169992104
397,169214204
395,168924227
397,175960426
399,175283038
397,174279182
398,168081557
401,170448335
398,165057322
397,176908159
401,169533972
399,162072225
397,164725156
401,163137190
400,166604501
399,169372076
395,161603052
398,167633119
399,165272094
398,163728760
398,168995808
400,165171209
401,165975373
397,170136380
400,166532260
400,162404015
401,170389520
401,167797073
400,164115555
401,162328142
400,167919534
397,168324197
399,165148132
402,171259624
401,164950404
399,165266059
397,169153741
398,170930771
399,174270857
396,170212467
397,166324262
398,163276061
398,163563530
400,164566415
396,173523936
399,168957304
398,164803426
400,167240774
400,171216189
400,170355415
397,169939284
398,168433118
398,168907527
397,164271796
400,171127547
396,172093044
399,165509370
398,161522165
399,171754523
399,167133386
397,168891838
399,167173757
399,169195177
398,166238710
399,171489659
399,169921457
398,167852165
398,168250273
398,163605559
398,167384787
399,165911462
399,164271836
399,175981790
399,170226076
400,175365982
401,168705307
397,176751794
398,176513840
398,170954757
398,173108617
398,166814852
402,175485397
397,179750687
400,167414704
397,169805489
399,169612015
397,170592912
398,171166194
398,168649609
396,175674265
399,164675725
398,168773347
398,178461756
399,172106053
401,166460334
397,173498547
398,172928400
400,163683441
395,165530533
399,162684199
400,168035340
400,166899556
397,165840657
398,173583673
399,168279179
402,169741408
401,168815314
399,173389926
397,171594048
399,166633541
400,170339285
399,171978915
400,168568079
398,171876328
400,166271054
398,163674552
398,165970335
399,167531015
398,172079687
399,164350648
399,166907743
400,167680007
398,173068947
399,166339045
398,166135574
398,165911440
401,164107016
397,166106301
399,168495919
397,164591837
400,166444949
400,168276768
400,163792129
398,166244531
397,168440709
396,163764947
398,162304612
397,170764470
397,173087880
397,166463245
399,166047611
397,178148702
399,166485091
399,168695709
398,172698217
398,165259486
400,166200703
398,171303847
399,170953096
401,170688976
398,170617794
399,176142221
399,170608246
399,170723774
398,161907934
400,165934382
396,172747786
400,173913330
398,168705262
398,169620823
398,165855420
400,167806036
398,169331401
400,165655669
400,166583091
399,168209091
399,182172902
397,170608609
398,164146521
398,169271893
398,170947547
398,167418872
399,167119273
400,174545863
399,166150664
398,173330973
400,167397399
399,166011767
399,162886702
398,168298961
398,171026903
401,165978475
401,166079280
398,174415634
401,171825172
400,167984590
401,166151407
399,165465364
398,169504350
398,171928168
398,163031627
398,172696038
400,171224264
398,163578681
397,174565967
398,172794754
398,171780954
398,172164890
397,170372506
396,166101477
401,164326008
400,171479528
398,163733203
399,168656337
399,174966956
398,171342482
401,169242022
401,168235502
399,171084385
398,168575203
400,167023442
399,166472467
399,169036229
397,165204004
397,166400834
400,171595159
397,173408075
398,167226264
400,176401197
400,166887890
399,170253235
397,174726897
399,175690011
397,165520081
399,173449545
400,168750461
398,165595649
399,174156496
397,168661172
398,168645132
399,165830384
397,177658906
399,173576551
398,171869711
400,167771778
400,166911117
399,165569869
400,166863991
397,167740275
400,163572420
397,164798444
394,165606776
398,166822942
400,165114401
400,166491333
398,174192075
400,166388219
401,172868882
397,165788222
399,166814617
399,171190997
400,169409434
400,166017097
401,164002456
397,171638211
399,173496677
396,165624671
399,173939862
400,165749772
400,167687391
400,171992857
400,167443075
400,165106251
399,169389561
399,168018073
399,167490133
400,166644348
399,171708713
397,163649132
399,173476291
400,168047354
399,166367815
400,167326417
399,167854799
395,167678162
397,165700210
398,169274249
396,168802947
397,167264215
400,168581383
399,170768722
395,167256376
400,166755319
399,168253999
398,167304200
397,167341471
397,166383219
399,174027125
401,171072275
401,168739847
398,171294174
397,163549958
399,162951785
399,165014828
398,172470793
399,171415954
399,170803526
399,169815580
398,168626237
396,172456824
399,168306413
401,168770740
400,167329235
399,165764292
398,167490094
400,165746070
398,169556917
399,172301641
399,171143937
400,168794588
398,171759253
399,165892188
401,168182471
399,171979730
400,167919630
401,172640812
401,166541432
398,168586218
400,171480499
397,169592284
399,164160839
401,166395214
398,167095677
401,170407358
397,172844767
400,170009162
397,161836315
396,170277280
398,166450848
399,165538368
399,165801464
398,164647560
401,168025522
398,171634077
397,172542426
399,168388505
400,171135190
398,165308074
400,171739226
397,171746659
399,169792832
398,175645082
400,172527345
399,171094353
398,167504130
399,171157797
398,170484984
399,169970466
400,169088691
397,166885531
400,174378664
399,170734184
395,168504085
401,161791087
398,168633553
397,165622130
400,168444238
399,167227717
398,168609186
397,172464669
400,165037271
398,169244400
401,168675231
397,173390283
401,167468340
399,161510172
397,174829515
399,159042389
399,164209548
398,165252272
398,168098305
398,170038453
398,164868663
401,167904410
401,164939112
398,167173821
401,169689067
397,169666407
401,167209493
398,173288197
397,171199367
399,165700665
398,166583856
396,166473211
399,170102229
398,169923623
400,169717735
399,178548394
398,165650560
399,171862450
398,171730739
399,169888717
400,167676141
398,180252459
399,167240477
400,168602904
401,163905153
399,168770686
400,165913087
402,165880117
400,173445571
401,166730884
398,167578444
396,174453276
397,170615367
395,167701075
399,163731845
398,165489755
399,165969964
398,172333593
399,176961623
398,165794218
400,169555037
400,172275767
399,171763133
401,174808040
398,173635929
397,173786523
399,171920759
400,167217782
398,171154082
400,165613196
399,163275127
400,168438030
400,170185157
398,167196646
397,170505383
401,169992747
398,165963471
398,169075998
398,167232916
397,171865685
401,170099880
399,170786294
398,172248998
395,170924028
398,171474419
400,167710526
397,178046430
399,167821378
399,176129929
399,171778159
400,173796817
402,165840549
401,168180221
397,170767237
396,171096945
399,173073858
396,171976531
401,170804498
398,168029419
398,170196093
396,168991966
399,168575037
397,171606475
398,169789042
400,161509416
400,176058157
396,175825438
400,166695547
401,170755377
399,175906092
399,171412012
398,171832855
399,168555161
399,176708803
399,169442152
399,166123133
397,171622701
399,164593553
399,162806520
398,169035667
399,166401931
398,172145790
400,171468313
396,165922785
396,171185401
399,168864312
398,173228266
398,171155341
399,168799637
401,168870879
398,164473856
397,171699901
400,169542406
396,168797960
402,166623275
400,167653859
397,166309651
399,171058206
397,172252796
398,173044630
398,166607704
400,162770541
397,168262432
397,170852424
400,174015187
400,176326260
400,174034004
400,174781595
397,172473163
400,167981979
399,167095991
397,173188182
400,172911754
398,166662553
402,166452346
400,164942558
398,167915110
401,172953472
399,171957704
398,169729501
398,168670673
399,159071846
399,162684943
399,166693000
399,168447912
400,167279563
399,167979092
399,173002274
399,164051000
399,168570582
397,167252171
399,170639643
401,169467371
399,165464811
396,167504011
397,174264117
400,170287635
400,168973808
398,171410779
397,172439310
399,169754386
400,167226040
399,169582265
398,167387244
400,167377376
398,170030234
399,173205533
396,168989443
399,164371461
400,164307932
400,169975135
397,167304004
400,172260511
397,167437565
399,170503679
395,164367522
400,176937657
398,172953245
401,164815267
398,166395567
399,169860757
399,165756239
400,164547696
397,167556409
398,165184399
397,168148864
400,166639360
399,171578901
397,170844869
397,173577509
398,165416267
