opt,time
218,27721203
217,1345133947
218,59371904
218,18601770
218,19020373
218,73752766
217,1375526482
217,1289554194
217,1218108150
218,6970873
217,1374301408
218,43132690
218,30371300
217,1098389190
218,53029377
218,45266791
218,10268714
218,11294972
218,37962352
218,21367959
217,1352659891
218,37879829
218,36199476
217,1198287141
218,300105668
218,37988227
218,37173796
218,99355289
218,52857369
217,1508075576
218,81743842
218,25866354
218,38809894
218,10638360
217,1260839128
218,7611265
218,19361040
217,1243666967
217,1246780795
218,18993818
218,13254259
218,29725241
218,61984308
217,1028861318
218,13060023
218,51603261
218,55245512
218,47676531
218,24711973
218,36875330
217,1164053153
217,1202564092
218,24925972
218,40555887
218,14324755
218,45454183
218,33488021
217,1291135715
218,35682103
218,38656584
218,254948289
218,56970546
218,38359160
218,9063600
217,1169458626
218,135966949
218,33329673
218,54661671
218,46238161
217,1268340646
217,1184708266
218,71336014
218,25220928
217,1191869296
218,56389378
218,55976345
218,21317292
218,24429803
218,55566581
218,22050847
218,164087967
217,1075105442
218,33705004
218,19195671
217,1369861007
218,44315774
218,24244439
217,1159117129
218,55077262
218,71385837
217,1197559563
218,31571308
218,27192430
218,28413666
218,22528099
218,64759877
217,1237286189
218,24446248
218,30912683
218,15461324
218,24560211
217,1049641717
218,63542784
218,21443262
218,68817759
218,43432537
218,35505309
217,1171884546
218,6553085
218,27492285
217,1175126496
218,31368268
218,36301827
218,47134819
218,81322179
217,1145126516
218,65435420
218,62948165
218,20586203
218,8450552
218,376777392
218,18156778
218,44980476
218,13921858
218,10959075
218,24342078
218,42935937
218,37626379
218,42641266
218,57315169
217,1182642591
218,25693653
218,68343778
218,36463835
218,68900503
217,1122973623
218,31339148
218,270255926
218,39553530
218,26471805
218,58173741
218,36840214
218,30360731
218,20009603
218,19366677
218,34413221
218,38140816
218,29404421
218,12734305
218,10943800
218,52162506
218,24209344
218,12577084
218,8480476
218,29186521
218,27721737
218,49190929
217,1105195655
218,15808836
218,44959008
218,26194972
218,35797764
218,58791820
218,34662032
218,81165461
217,1099444172
218,122491295
218,26746688
218,8331764
218,16391971
218,37236914
218,9807919
217,1183413520
218,31751970
218,18254533
218,65209567
218,17688258
217,1256728116
218,13459235
218,12546212
218,17873681
218,71611958
218,20420372
218,60443707
218,42700476
218,17776767
218,57471877
218,27721129
218,12526113
217,1265782501
218,43370945
218,72761229
218,30326374
218,42651729
217,1220857097
218,16635133
218,239883448
218,11056716
217,1202987090
218,16321731
218,15427035
218,7918433
218,12951446
218,37617428
218,184158106
218,8069145
217,1171753807
218,20172276
218,13902861
217,1440132052
218,34107417
218,8821957
218,8211140
218,41057003
218,36868741
218,19683125
218,61677829
218,49480757
217,1080987566
218,6388300
218,51684934
218,48251689
217,1302380073
218,36088111
217,1169932876
217,1252363012
218,28359533
218,19619194
218,30057152
218,31367350
218,42463555
218,41420528
218,96741474
218,79199973
218,33233414
218,55201471
218,69082839
218,22886993
218,40307568
218,19571474
218,7679574
218,31397759
218,66253370
218,81907155
218,14533240
218,23348800
218,62693825
218,14630287
218,66494433
218,50317662
218,53083319
218,47484045
217,1215617188
218,26117258
218,45339949
218,27835079
218,7801436
218,31904214
218,45085321
218,36704247
218,14483835
218,11500796
218,43962056
218,31432471
218,20760612
216,1332139654
218,36797653
218,58446280
217,1239368395
217,1250217320
218,37298085
217,1340518584
218,71957993
218,61158144
217,1235748141
218,27121550
218,44538914
218,47440340
218,40729378
218,119914433
217,1263967553
218,26318659
218,17460093
218,55297545
218,67599816
218,15306133
218,59347076
218,100792167
218,26894287
218,21360280
218,19413090
218,7562861
218,54451929
218,18631747
218,26162019
218,107757726
217,1181820841
218,139396055
216,1061372436
218,28070544
218,25250133
218,14864673
218,73493988
218,52323884
218,40081427
218,6208913
218,45956300
218,23118914
218,12084034
218,19443187
218,58363789
217,1092938619
218,13161251
218,31141581
218,22686990
218,117696325
218,8719097
218,42380853
218,36494542
218,11504601
218,20922902
218,55207150
218,28590672
216,1274738441
217,1312951562
218,40241162
218,63181001
218,48996780
218,8610548
218,61819588
218,60388018
217,1319169030
218,24291206
218,10429631
218,86254814
218,25329567
218,8234593
217,1136237019
218,15195101
218,17942604
218,24433051
217,1253775354
218,11069999
218,33940736
218,30099569
217,1048979380
218,69303718
218,46436774
218,35976992
217,1176055847
218,13533322
218,18433022
218,26921759
218,37965738
218,26770495
218,43726509
218,27345510
218,30291116
218,14569868
218,34839350
218,14514689
218,42609093
218,49799395
218,42674868
218,23828911
218,147751764
218,82268515
218,63913750
218,46507001
218,23246489
217,1062122355
218,39230406
217,1192413847
218,205080837
218,28679591
218,33094796
218,10876985
218,46828587
218,35059054
217,1198110587
217,1265580618
217,1353084198
218,44485608
218,59471137
218,31446203
217,1249578023
218,27284848
218,41486189
218,81782093
218,70013941
218,7704637
217,1078992426
218,135298822
217,1144883931
217,1118331379
218,55828590
218,10316975
218,19513595
218,30923438
218,25230793
218,59359845
218,16526570
218,14070748
218,33938554
218,31024553
218,39958687
217,1120626777
218,117365745
218,30209020
218,27121118
218,34466629
218,48657411
218,54799082
218,17127897
218,14227099
217,1134193066
218,36693138
218,55753942
218,62033609
217,1103540931
218,56132543
218,105414005
218,44577738
218,26672145
218,25419464
218,22442105
217,1581811127
217,1229377114
218,67793645
218,16094501
218,17022038
218,44295859
218,20251433
218,44262082
218,22956814
218,24062936
218,38659848
218,49343348
217,1186668777
218,19050236
218,84577322
218,31977755
218,43643117
217,1251371839
218,42131681
217,1238899091
218,47088157
217,1176730621
218,27512131
218,14011861
218,23632937
218,26912460
218,57687404
218,19442012
218,24878688
218,49196249
218,21089906
218,39702120
218,9565387
217,1236984716
217,1191349713
218,55820155
218,17803983
217,1170396815
217,1191350028
218,15251511
218,19016512
217,1162042041
218,24761203
218,57989184
218,20016407
218,35041561
218,7606177
218,81025259
218,22599508
218,32340540
218,10919929
218,42902788
217,1195441368
218,43043291
218,39018908
218,11063399
218,33924171
218,44403513
218,27053900
218,36010309
218,48109120
218,32630850
217,1102493194
218,36514839
218,53090270
218,43486842
218,9842255
218,38230639
218,30381614
218,22375561
218,33136580
218,42170739
218,14899223
218,36113982
218,19985041
218,51471401
218,24083724
218,8391177
217,1247336937
218,31181554
217,1086422138
218,55371986
218,27453294
218,15050485
218,57241188
218,38432612
218,42781552
218,492845729
218,55837162
218,189530068
218,35192451
217,1182296108
218,15650681
218,54709807
217,1320036434
218,17927309
217,1161430321
218,47160888
218,31895766
218,24371563
218,44987873
218,31317793
218,19498780
218,27166591
218,68445488
217,1253982754
217,1158915382
218,43605186
218,56349072
218,16080560
218,43285300
218,30775593
218,46222839
218,35923428
218,39522835
218,15077040
218,36842940
218,32837419
218,23060665
218,29931611
217,1156133365
218,21201012
218,8994950
218,34957546
218,5585428
218,37074834
218,38432545
218,25995290
218,98784507
218,7899193
217,1299568602
218,53310398
218,81315027
218,9559207
218,18071168
218,29946464
218,42610479
218,8745094
218,30658638
218,13515967
217,1218657849
218,89903103
218,20200980
218,37417753
218,8056175
218,107630925
218,45742620
218,25787427
218,20945873
218,27988814
218,12030783
218,71540734
218,32873301
218,43408169
218,26696316
218,15435586
218,7392725
218,33079761
218,29777951
218,17873437
218,35220076
218,76439164
218,39836563
217,1164110375
218,39791157
217,1237882375
217,1180644704
217,1147673991
218,7463785
218,58639203
218,20593680
218,39019834
218,47697975
218,106173617
218,211432345
218,29916137
217,1160104077
218,46377129
218,78830904
218,21417843
217,1124228189
218,39873693
218,20272584
218,13344778
218,50612484
218,21081531
218,22444460
218,34849513
218,25882977
218,21467638
217,1143121142
218,59334598
218,26543661
218,20149447
218,8677296
218,54807641
217,1158095141
218,13099359
218,44859391
218,60620118
217,1128416489
218,58805224
218,94168872
217,1143599950
218,15002789
218,41346659
217,1194831362
218,193108826
218,27025256
217,1215209815
218,38754464
217,1345737350
217,1143429942
218,25438219
217,1261367235
218,29571817
218,29518848
218,64280146
218,27355781
218,49117606
218,28104750
218,44769383
218,32799315
218,27502763
218,16227162
218,36999698
218,241566594
218,95705471
218,34077320
217,1327055580
218,27382730
218,65656964
217,1109732421
218,7276970
218,33433572
218,27465385
218,16608904
218,35459874
217,1260316959
218,88003406
218,126041386
217,1192505074
218,26258362
218,28248305
218,14530211
218,44044967
218,6508218
217,1102704671
218,30845909
218,42594080
218,23047123
218,62039076
218,393493313
218,36821655
217,1333925400
218,33623390
218,34656758
218,41152540
218,8329460
217,1261018757
217,1460247400
218,11247575
218,31431958
217,1141623496
217,1242514656
218,40347882
218,27746999
218,23465437
217,1244500948
218,40048276
218,30865582
218,56268362
218,46941253
218,27246187
218,18311231
217,1395923821
218,72050116
218,72088858
217,1547516663
217,1104804740
218,41263826
218,23721996
218,30908130
218,36021594
218,45779256
217,1306233924
218,55428862
218,24843429
218,33000589
218,106192611
217,1455633402
218,25639479
218,38954431
218,20763947
218,36617530
218,33013414
218,34853197
217,1254334627
218,47642725
218,7915372
218,43102962
218,24276888
218,84235212
218,28187101
218,8499444
218,45501480
217,1231797820
218,17334036
218,82810395
218,45038197
218,64202970
218,25871063
218,26852354
218,47877029
217,1369615483
218,14443541
218,23728951
218,63259173
218,25568065
217,1263753619
218,58144625
217,1252395708
217,1243745183
218,9038923
217,1244632429
218,43823940
218,39410023
218,24801631
217,1198863329
218,11475448
218,49203593
218,6881894
218,22436197
218,50590659
218,79749076
218,33846103
218,8870266
218,39220826
217,1157138169
218,51972147
218,44232944
218,57042137
218,14515220
217,1300995012
218,30316047
218,51286729
218,65905308
218,21629367
218,23643970
217,1145003032
218,21968705
218,30306102
218,12000731
217,1311901474
218,27241806
218,59050399
218,37544934
218,32567453
217,1259152540
218,19421725
218,75138805
217,1159464521
218,15566663
218,83317028
218,13451039
217,1222540265
218,73576574
218,68234434
218,41853593
218,35418868
218,37901438
217,1178951615
218,35118081
218,23019948
218,29343752
217,1176744603
218,13478180
218,12551537
218,105925520
218,66592812
218,41738551
217,1315330336
218,35967115
217,1208257887
218,13879184
218,36666877
218,12052898
218,77121739
218,13913473
218,44127325
218,19873236
218,34342441
217,1173608480
218,37919904
218,30908237
218,16413472
218,28555828
218,24454668
218,34738079
217,1211633269
217,1271750278
218,48921950
218,24265870
218,53838781
218,26397561
218,7396732
218,42718620
218,37516625
218,16618117
218,26381698
217,1178374055
218,33679088
217,1128251223
218,72937660
217,1308482186
218,15902265
218,19438639
218,31001014
218,46560058
218,49853362
218,51677102
218,33042854
217,1308577959
217,1165994791
218,39096446
218,45047516
218,40133128
218,76955697
217,1049173458
218,182666274
218,10993690
217,1261519268
218,44264742
217,1140099702
217,1236000496
218,44481215
218,9671313
217,1278709111
218,34729561
217,1046397768
218,25662564
218,44790489
218,72172583
218,22903251
218,29733804
218,17292674
218,33664391
218,33640182
218,22767342
218,46526389
218,14637201
217,1222991808
218,25586465
218,45107715
218,50101738
218,32859315
217,1329359360
217,1128327577
218,36011002
217,1381429125
218,32303249
218,32342484
217,1050147522
218,23098540
217,1153595949
217,1048107094
217,1095062953
218,18844507
217,1200881370
218,36646056
218,25475226
218,9588756
218,43514349
218,97651290
218,45056350
218,62342781
217,1125923431
218,90356620
218,28078105
218,29601296
218,33073758
217,1085974937
218,20877375
218,23044458
218,22482615
218,51815410
218,18543025
218,19897995
217,1127233374
218,33882175
218,9402865
218,17586290
217,1238417474
218,19668226
218,35761601
218,45152565
218,21676460
218,31319316
218,45244769
218,13116391
218,6864266
218,28888245
218,15086467
218,14478940
218,11149159
217,1330655803
218,69512264
218,16113816
218,47108200
218,60185460
217,1303914910
217,1244072413
218,45716748
218,44099487
217,1460481478
218,130497952
218,31814399
217,1261007698
218,41038362
218,38215720
218,18587693
218,45238020
218,28931558
218,13814475
218,6716453
218,42946611
218,37306855
218,70791077
218,12077389
218,89756685
218,41012350
218,23943712
217,1430942263
217,1147488963
218,48742494
218,21745532
218,8154551
218,9974437
218,25377336
218,14747791
218,60407065
217,1326401866
218,100068667
218,30141734
218,46972316
218,52454115
218,40452641
218,24820148
218,34628020
218,9075927
218,12925988
218,34975222
217,1368184260
218,40014341
218,39386814
218,72115346
218,68256362
218,6892902
218,24692908
218,15156895
218,28750761
218,27138250
218,13602179
218,21652821
218,13507907
218,63934945
218,28038771
218,107233123
218,24761215
218,13012881
218,221926059
218,42823611
218,61992589
218,33153204
