opt,time
200,10249370
200,10432945
200,13121597
200,9660947
200,9126239
200,12289424
200,12191395
200,7529033
200,12724731
200,10700200
200,12535450
200,14228635
200,10607427
200,11293471
200,18127532
200,9639965
200,12012290
200,14628004
200,9680254
200,13795308
200,12162921
200,14448032
200,11346258
200,11434307
200,12042443
200,7631003
200,12779987
200,8097139
200,11216460
200,13533151
200,12298470
200,12740368
200,11597405
200,14750693
200,16928099
200,8657136
200,20272264
200,9797766
200,12989964
200,6115336
200,21128080
200,7903675
200,12600281
200,10799924
200,15560078
200,16076244
200,14267638
200,12566785
200,11689533
200,13012285
200,15709710
200,11803455
200,9552979
200,10746289
200,13140778
200,13581410
200,9058399
200,9714455
200,13350710
200,15068550
200,14818568
200,12860439
200,8975885
200,12120203
200,11707435
200,9753940
200,9215208
200,13002051
200,9054776
200,10330161
200,8115646
200,11685182
200,19616789
200,12415231
200,16969297
200,16408373
200,7694345
200,10756003
200,15767976
200,9998278
200,13732009
200,13830909
200,13110169
200,13471813
200,12783651
200,10163951
200,15122776
200,8712997
200,10524642
200,9147731
200,9937986
200,12202447
200,9523961
200,14821443
200,8289484
200,12565270
200,10776499
200,8601758
200,10289415
200,12489775
