opt,time
300,74924040
300,48225025
300,77795332
300,101620442
300,71012935
300,130588533
300,58473473
300,60181921
300,38978127
300,40186141
300,69144361
300,37918933
300,64050963
300,38241843
300,16635552
300,73486131
300,21805217
300,33666363
300,36754940
300,45286707
300,88832539
300,21468033
300,38395660
300,31115944
300,58885779
300,59897343
300,46918552
300,66591754
300,103935525
300,100896114
300,18030114
300,76587924
300,54224474
300,73388498
300,35254659
300,50330372
300,60093264
300,97343748
300,30609959
300,86360228
300,103382962
300,24831018
300,38813090
300,40204570
300,35693863
300,17283368
300,22826004
300,54370158
300,83126059
300,22913025
300,66273265
300,50481924
300,103915347
300,62796423
300,109399879
300,37136611
300,38183449
300,53373525
300,46575918
300,21566016
300,68061923
300,21800859
300,36190162
300,46491017
300,36866111
300,50587645
300,90837264
300,50381793
300,24921949
300,35604144
300,50356146
300,22217697
300,53767738
300,87866390
300,50202621
300,52712839
300,80443742
300,98987551
300,75424547
300,38086612
300,29623782
300,38538526
300,19407891
300,22170322
300,65502881
300,63087131
300,73218076
300,106989487
300,53221888
300,40841335
300,31850687
300,35575482
300,66014582
300,19046330
300,60181493
300,66638147
300,50079095
300,92374522
300,98721879
300,105587131
