opt,time
403,1625242377
403,305354379
403,2335167489
402,6071479511
403,2593382066
403,373695852
403,505573789
403,290887743
403,219966457
403,1384445224
403,219253416
403,1551745914
403,1708133480
403,215846416
403,189784616
402,6858870535
403,619979593
403,361671677
403,292652585
403,1477564342
403,1553905422
403,6278185339
403,1413364267
403,291843948
403,236725577
403,293101867
403,308069959
403,321863836
402,6877783498
403,277577072
403,248005301
403,1443528891
403,2640185278
403,1500826423
403,3919287180
403,1535429507
403,299494004
403,241319038
403,1432398823
403,2654295350
403,156471896
403,2459303143
403,2897827223
403,1872995512
403,1541698002
403,326097756
403,1440143081
403,1355282330
403,219162849
403,1304246729
403,162682381
403,514166776
403,128897618
403,2825758546
403,460816273
403,1396033222
403,499201554
403,5176671836
403,244400429
403,223596624
403,2320265083
403,296243598
403,323991850
403,3490153725
403,1617678362
403,264209607
403,1559590525
402,5504046272
403,1915346223
403,395678529
403,437534508
402,5252229381
403,149614600
403,253837620
403,2858302610
403,389029984
403,138605247
403,289057971
403,257619633
403,165849556
403,4694502353
403,193634735
403,286677656
403,1365099229
403,82489746
403,298400590
403,3606901047
403,204801900
403,318808745
403,223459587
403,349028320
403,350577908
403,166930058
403,386346469
402,5870603161
403,216134998
403,2538912622
403,1597316237
403,1254550442
403,318687464
403,1486365589
403,246059454
403,726099118
403,227222896
403,2476906101
403,328699757
403,184333910
403,112776402
403,255283035
403,326981323
403,3417198905
402,5631510258
402,6091253933
403,532475779
402,5730329751
403,190443057
403,1319267031
403,1817198185
403,2644746164
403,297096843
403,329456229
402,6295326230
403,198826583
403,415680945
403,4349246979
403,210575639
403,289036157
403,331856889
403,185412577
403,288921391
403,4268787284
403,177326111
403,274984013
403,369767026
403,261351950
403,336065633
403,200440305
403,219922390
403,3285947648
403,213415728
402,6425097117
403,78113840
403,268300791
402,5455156038
403,253376692
403,70570169
403,1134497542
403,1562491543
403,308568164
403,958783047
403,3284736493
403,281046109
403,70638701
403,203655980
403,142519618
403,242754767
403,337769522
403,1301015750
403,1399010841
403,245135081
403,3722667865
403,301907429
403,162225801
403,244470096
403,1262578516
403,252093447
403,316237163
403,153123961
402,6310072528
403,2894980442
403,1346027209
403,2598575988
403,251913178
403,1334905633
403,1326153315
403,111749363
403,187572605
403,2550733632
403,304226562
402,5661750216
403,190660960
403,1283258496
403,373084276
402,5969383625
403,264948146
403,305030519
403,4195177856
403,271258291
403,4018106986
403,256273530
403,265471884
403,314286400
403,1395670142
403,5380137008
403,599254192
403,180301255
403,251197269
402,5901803702
403,274303369
403,155514911
403,137572992
402,6738573477
402,6279990845
403,295044039
403,410935345
403,222122894
403,208859112
403,196597437
403,4129762841
403,1498935370
403,323532283
403,238011529
403,504210918
403,2507360521
403,267232039
403,1181825215
403,213671084
403,226256539
403,267166973
403,476553771
403,380245900
403,261640074
403,90123543
403,4551522422
403,2953866534
403,467481245
403,1269672248
403,1298488399
403,1287086275
403,122401852
402,5827175226
403,525654951
403,210124027
403,1688094343
403,205098460
403,530154038
403,274709222
403,2244980267
403,4158179955
403,4869998332
403,414243484
403,236227246
403,1379013333
403,5138443451
403,5057418504
403,171517538
403,838204377
403,3062699373
403,313720816
403,244568610
403,164917049
403,1201734330
402,5631403557
403,202162524
403,1267088293
403,283351728
403,1180644333
403,245679776
402,5570136369
403,132032363
403,238137111
403,360165047
403,295347573
403,2409987983
403,175965067
403,2251187772
403,1125604167
403,159361831
403,4220214434
403,618013009
402,5380630806
403,240220052
402,5321268213
403,293287518
403,3533651009
403,412385642
402,5342111262
403,3801375151
402,5134834727
403,2351807284
403,370115083
403,254796742
402,6232938973
403,2490263781
403,3496607906
403,2398247961
403,227354501
403,167891463
403,2372255223
403,192248933
403,180762930
403,3442187170
403,162106289
403,1813464395
403,126558741
403,2506889955
403,2624973142
403,153070361
403,243881909
403,1316565671
403,2422006172
403,248728703
403,141513355
403,1533837451
402,5499224869
403,1513837607
403,264837730
403,938219978
402,5897834677
403,3089876385
403,503635102
403,298416649
403,1309969041
403,1519467514
403,5272868166
403,187271442
403,330601205
403,196408362
403,1447147009
403,484090775
403,206962456
403,1370662521
403,261946900
403,2567154445
402,6253649353
402,5320754274
403,312817943
402,5299945802
403,262880941
403,284400147
402,5768357694
403,208811482
403,308200208
403,4555992663
402,5891081567
403,546704919
403,175533649
403,2544094800
403,148677499
403,2648355549
403,454565594
403,243664260
403,1265759362
402,5133173821
403,191459585
403,220678801
403,252656751
403,2643952509
403,323906700
403,310489077
403,3060592711
403,1445591981
403,173929529
403,777054823
403,1501598108
403,356407183
402,5744465755
403,285870513
403,2164727521
403,3505431728
403,339841529
403,246101070
403,1551370179
403,293114422
403,332149138
403,1016496409
402,5685342514
403,2268370742
403,317343677
403,338590830
403,323609745
403,172443465
403,259649991
403,263214566
403,2448724943
403,390353118
403,183107437
403,98538565
403,506912769
403,277018054
403,1417154165
402,5268582811
403,144437119
403,396677098
402,5335535141
403,1390806317
403,3538872077
403,285046004
403,292952472
402,5788270836
403,2645195143
403,1212566054
403,163392928
403,227276822
403,294151664
403,2837018741
403,245176442
403,172943721
403,2937845726
402,5412480347
403,260625166
403,1388643760
402,5579360373
403,274793496
403,411598852
403,207968508
403,1706761971
403,5415949784
403,244082752
403,183624281
403,326514074
403,1528764762
403,3747142842
403,2387361260
403,1422277342
403,278028766
403,415190325
403,237237187
402,5343450433
403,2567046832
403,231090135
403,2489329423
403,173263974
403,454192842
403,316962007
403,289892872
403,131982785
403,3108162642
403,280488854
403,1619029940
403,4265663808
403,5513337084
402,5541312389
402,5139542606
403,3632281766
403,319046899
402,5707334548
403,4182355377
403,623942268
403,2713305815
402,5069059946
403,1411617169
403,225857648
403,274291274
403,240074170
403,232339865
403,174202516
403,124323839
403,442293497
403,255547333
402,5449319008
403,1313368359
403,1568984930
403,1225172774
403,459121863
403,415798382
402,5829359017
403,2652059883
403,1590941072
403,106206797
403,165654107
402,6210440492
403,376135954
403,1560636402
402,5788173906
403,355098425
403,385751229
403,1457775503
403,254605984
403,277404559
403,2588233389
403,194294763
403,1503580161
403,259117436
403,610328753
403,1492541470
403,2663628104
403,1588634065
403,1390885195
402,5365485564
403,306690760
403,338997657
403,2545941010
402,5405293181
403,345853162
403,210292620
403,181062034
403,207139012
403,558703621
403,347200000
403,1292207030
402,5067866870
403,1293816056
403,120888283
403,183060578
403,182857967
402,5612769058
403,208190931
403,787875483
403,137610021
403,3554921189
403,1382003608
403,149342412
403,313720209
403,1030186884
403,1549530269
403,196085504
403,169804979
403,3444484657
403,407279313
403,232688513
402,5260903168
403,217899381
403,2564491409
403,3355944211
403,273344359
403,127186533
403,151389766
403,272402762
403,1721723319
402,5474667505
403,231658356
403,378507678
403,348280407
403,279908669
403,224924039
403,224224958
403,229662943
403,3693469092
403,1320200988
403,3489317641
403,2348684875
403,209954846
402,4897226405
403,5045804523
402,5598757459
403,2805603087
403,1375096574
403,231962688
403,1548958527
403,765301141
403,222475712
403,261075173
403,152146198
403,4909874443
403,2225170269
403,349465221
402,5356026647
402,5362919848
403,369133418
403,110604749
403,259586254
403,223791036
403,1331091235
402,5491233182
403,201090456
403,278031215
403,367210938
403,1449942421
403,289804850
402,5772251359
403,134070855
403,304364479
403,2454315471
403,1048706567
403,151159186
403,165268642
403,359049766
403,304533171
403,214104618
403,5082773613
403,167899292
403,198596595
402,5379866173
403,1501595489
403,221906405
403,250206321
403,2544994478
403,379133143
403,181829119
402,5380656965
403,771099559
403,1382744404
403,1384003039
403,313013060
403,252243215
403,165079422
403,263313915
403,319022103
403,1536772449
402,5367832734
403,1226465103
403,693195964
403,1445239167
403,214788088
403,2401759410
403,163021199
403,354248028
403,255911324
403,288071030
403,132019749
403,150797203
403,315028734
403,1276394537
403,346656816
403,300163624
403,3118286222
403,295215164
403,1539609683
403,259255009
403,3788201871
402,5044924873
403,3625058694
403,348297139
403,220353396
403,318383968
403,259009067
403,221153853
403,379005110
403,2417525874
403,1150051277
403,418761857
403,162705101
403,2284451461
403,209072014
403,4065083712
403,2722124537
403,211163159
403,2707875807
403,433085852
403,332131258
403,4774594053
403,1492614590
403,185579205
403,231995579
403,475918422
402,6242666714
403,2049959556
403,70456173
403,1239226493
403,1177642045
403,181778381
403,233595383
403,153032018
403,253274741
403,1558939001
403,410065845
403,299591669
403,376709305
402,5903624218
403,271759559
403,238130533
403,1494988927
403,276425776
403,403120259
403,2257829861
403,551013588
403,2170198244
403,3801194707
403,4898779540
403,134252936
403,1312529405
403,219317124
403,2399965485
403,1296383583
403,1188958953
402,5563300090
403,1388620645
403,2398816713
403,1632615617
403,2315990415
403,204060973
403,285651788
403,1163207287
403,133944768
403,203399896
403,2478490058
403,1424112980
403,1102916229
403,296856045
403,2477276047
403,4352488129
403,1578934640
403,254365452
403,194577745
403,1527009816
403,323760758
403,66727927
403,1204855151
403,265287008
403,228383516
403,153328787
403,189751696
403,353318725
403,1239229544
403,3744422212
402,5222607730
402,5586446886
403,178655186
403,285864910
403,2383149360
403,2686325197
403,3881764022
402,5431386274
403,2662526813
403,1314962683
403,2701645106
403,275919578
402,5635973189
403,411467636
403,145184484
403,3974829986
403,150296489
403,573552336
403,3452023118
403,2441913996
403,449626452
403,803882360
403,220727102
403,584131726
403,188050119
403,2338830654
403,2137904497
403,309439433
403,178303417
403,140531329
403,2366354920
403,1247019430
403,146043972
403,497135430
403,1411399458
403,1578821976
403,301583625
403,797023278
403,218230673
403,1708794011
403,3459468663
403,335978682
403,571664381
403,2297700366
403,378793535
403,208717760
403,377125404
403,4034115374
403,99501521
403,1509662955
403,1417063079
403,2284245478
403,277863052
403,3298051894
403,3669503493
403,1411291857
403,158420311
403,4870768999
403,347974601
402,5460902923
402,5128135004
403,232581103
403,314810584
402,5669025326
402,5180959908
403,1462419542
402,5315574698
403,163623331
403,1232776693
403,2532833985
403,1387537087
403,1436942817
403,1327811924
403,216460331
403,1416540519
403,1146681718
402,5726935983
403,383220381
403,2544296916
403,169514787
403,1231536325
402,5998630043
403,259563691
403,309420162
403,246346660
403,144568401
403,1407949649
403,113244680
403,1275605364
403,139595156
403,302718678
403,280004452
403,3707845400
403,622906758
403,2891244284
403,224645591
403,645055678
403,203925825
403,223772774
402,5489577484
403,298515643
403,217386603
403,297097828
403,174284706
403,497410127
403,2607322753
403,270087963
402,5011022155
403,1327158702
403,4776673780
403,1385211245
403,1646893336
403,211713131
403,2111817584
403,279089696
403,200545775
403,389076790
403,1490505534
403,251644006
402,6032337838
403,116876746
403,3589129537
403,189041994
403,223325900
403,1182674731
403,273871525
403,123538456
402,4900664425
403,1452567903
403,256169598
403,210155684
403,3487654390
403,582644105
403,442944333
403,200558710
403,364254329
403,253252621
403,317452716
403,1199415283
403,208668427
403,1527464420
402,4991975166
403,281638424
403,243807352
403,3135408832
403,202611559
403,215214112
403,563377141
403,265465359
403,164726804
403,221498231
403,2098942580
403,204662954
403,2633929345
403,271380017
403,197994888
402,5253515021
403,1314620755
403,103962157
402,5347288967
402,5553158809
403,212308139
403,279878255
402,6439818683
403,2557348220
403,343213531
403,261992544
403,255895950
403,247994710
403,290711239
403,274037247
403,400538229
403,341711849
403,1511239205
403,659170094
403,124104144
403,210597286
403,208839974
403,3092250677
403,192485963
403,153860957
403,286515130
403,97103846
402,6052224896
403,319798278
403,1199470962
402,5464205382
402,5258216915
403,1430916178
403,259422360
403,165024760
403,5252442304
402,5224946987
403,2689181767
403,1604553117
403,2687740151
403,158253492
403,1291237167
403,249844690
403,1377079967
403,295869826
403,244096208
403,537695018
403,598273024
403,1831110263
403,229832021
403,1613232747
403,1334000515
403,1404174579
402,5115350288
403,259753212
403,2879963122
403,220735245
403,88837236
403,238530832
403,1755166131
403,2314221431
403,1188540922
402,5231584458
403,293487685
402,5299944641
403,1416708781
403,1342952822
403,2820876407
403,271442832
403,4535432393
403,155836693
403,195059900
403,208916382
403,1374052904
403,2326047958
402,5912099504
402,5849987926
403,134115282
403,2459319588
402,5621480578
403,355105933
403,179988879
403,2228779702
403,699644906
403,204558005
403,2723547241
403,330884805
403,246747308
402,5688324249
403,169754605
403,178300990
403,191277564
403,389069532
403,2176492566
402,5302767902
403,1586886599
403,1229232254
403,99012351
403,4572645581
403,1197070993
402,5785413043
403,252067898
403,3032255324
403,4284978332
403,1550958878
403,3439222159
403,161027856
403,158740092
402,5864985860
403,252292175
403,1384334303
403,86758088
403,219553867
403,1790629272
403,3621129360
403,226630081
403,320618204
402,5403101056
403,224171627
403,2557353168
403,2578911236
402,5159165257
403,2503079948
403,3516212557
403,126520241
403,162940211
403,282333850
403,238256236
403,383964087
403,213486935
403,1363415049
403,2709198169
402,5309579859
403,589446249
403,2620490889
403,512113979
403,193028616
403,286370374
403,196453610
403,479486013
403,302952362
403,3618389135
403,1292659074
403,2426321117
403,209338293
403,186476506
403,208000991
403,489610835
