opt,time
400,35397924
400,185993786
400,100402534
400,59683714
400,25398705
400,134312858
400,52330672
400,43289498
400,34653344
400,32463790
400,24458354
400,27194909
400,28445707
400,25466955
400,23841368
400,88024461
400,32245108
400,30361484
399,389128360
400,24864813
400,33849860
400,37136946
400,24761014
400,30257474
400,63861252
400,25793344
400,30749945
400,53340467
400,24477999
400,66363248
400,51497443
400,85129272
400,27288757
400,52062114
400,58791632
400,78976647
400,142273793
399,575225193
400,49176573
400,28335357
399,723484071
400,26829524
399,487933145
400,37599801
400,28780612
400,58868557
400,33845841
399,825126147
399,473821878
400,75249999
400,32162079
400,76591580
400,34608095
400,25460216
400,27028153
400,24386015
400,34191922
400,25082754
400,59375675
400,27443267
400,32763187
400,25567179
400,105365779
400,25130416
400,25293952
400,25382048
400,24744853
400,24014579
400,38223836
400,79789126
400,25608913
400,99388938
400,25240391
400,26158360
400,28821999
400,27297649
400,138458969
400,70113427
400,28880243
400,107436298
400,24949898
400,31486643
400,32242561
400,26077222
400,25413195
400,32616351
400,24783106
400,113217390
400,25650138
399,552595534
400,34133680
399,313820343
400,27922410
400,26267209
400,188815058
400,27532254
400,28376106
400,37528783
399,522608097
400,135072594
