opt,time
217,58747531
217,44880880
217,48310744
217,56129901
216,338728695
217,46504421
217,64205064
217,104807659
217,54788958
217,49393731
217,39926419
217,49820350
217,44675169
217,44465141
217,45984844
217,48254765
217,44484271
217,46503072
217,51470308
217,50765329
217,50401738
217,48723694
217,57804795
217,50927143
217,41733271
217,73994471
217,44061597
217,220202310
216,280518004
217,53597217
217,51908265
217,52491557
217,42056693
217,66847516
217,58555559
217,49231802
217,50700030
217,63557195
217,84471580
216,289602061
217,56665104
217,50258823
216,332544570
217,42597417
217,47041163
217,53173800
217,38546463
217,44018526
217,40594738
217,47100943
217,54335587
216,179552792
217,43675468
217,52710569
217,57373773
217,51594930
217,43619304
217,51852752
217,53874685
217,46459024
217,40934087
216,252086652
217,46966467
217,47559433
217,70628993
216,291920923
217,52091037
217,54813183
217,73481855
217,76914845
217,40732540
217,38129815
217,41953971
217,53795067
217,43851821
217,51575683
217,62644609
217,47114387
216,286356095
217,48342659
217,69072156
217,43665503
216,239642482
216,230441139
217,48606785
217,78898034
217,48506554
217,50172520
217,45490593
217,45041712
217,50065427
217,47079513
217,63668761
217,41387451
217,48621036
217,46093194
217,43240861
217,41290618
217,66741676
217,66821741
217,46835099
217,68545992
217,73785043
217,46184197
217,48995066
217,49220149
217,40683499
217,66892399
217,48260755
217,44867754
217,55316184
217,55312594
217,45840142
217,42390390
217,50882667
217,56453222
217,50276679
217,53485159
217,48777991
217,77316158
217,71656406
216,256583777
217,47696161
217,44828602
217,47389229
217,57137272
216,259560142
217,45479021
217,47060817
217,47420890
217,49374438
217,47116508
217,49225227
217,288536336
217,53203942
217,48218051
217,107867874
217,45580601
217,64535359
216,295945202
217,53930286
217,47623430
217,46541629
217,51085244
217,70211132
217,48097152
217,44277859
217,53968076
217,50132607
217,51212914
217,72284429
217,45809012
217,43358108
217,43193688
217,49931776
217,53677016
217,54580206
217,47250960
217,57739471
217,46037425
217,51328660
217,57084541
217,48798238
217,42838880
217,51755766
216,273373100
216,255074744
216,299027885
217,51055098
217,49963293
217,60448518
217,52140922
217,53810394
217,46875740
217,62840518
216,281263906
217,47045010
216,291632067
217,114551626
217,102854955
217,45103035
217,46772169
217,38662216
216,262238445
217,50915881
217,43319710
217,48245444
217,75555491
216,337069130
217,45551404
217,49099678
217,45064531
216,254688013
217,44891178
217,53349080
217,53133176
217,42898349
217,33358100
217,59298291
217,47928101
217,52424202
217,42160239
217,43868098
217,40934125
217,50771438
217,40339632
217,41969572
217,47410088
216,294369980
216,288304843
217,52741265
217,54685283
217,43379526
217,39517658
217,58928089
217,74008204
217,42044776
217,49271544
217,53822303
217,52042880
217,46987696
217,45484489
217,55373442
217,45040964
217,46433683
217,53431045
217,48277445
217,50742535
217,47341694
217,46755099
217,45761031
217,44278749
217,44524337
217,47822344
217,46164048
217,53154665
217,47769682
217,247596098
217,55048916
217,51493043
217,48232020
217,64019800
216,244494752
217,52177134
217,47733276
217,46584623
217,46903612
217,56599160
217,42893345
217,51199716
217,52511346
217,61997313
217,47037792
217,90209195
217,51536834
217,160246381
217,45520074
216,317013374
217,48815841
217,43961668
217,45671659
217,46590157
217,97804897
217,53208329
217,51223767
217,44222726
217,48815536
217,48374874
217,41387147
217,48999366
217,52377836
217,40885333
217,191131040
216,288414427
217,48525393
217,51007975
217,71486085
217,87267628
217,47294823
217,53137178
216,266919029
217,71268251
217,52349667
217,49831187
217,41257776
216,483404131
217,45931001
217,58144126
217,52946863
217,50087266
217,51239113
217,46731044
217,51917887
217,57286770
217,45361569
217,44880028
217,89843475
217,48379035
217,46657645
217,47101522
217,39613504
217,48466695
217,147924685
217,54658935
217,46099469
216,282503869
217,70342350
217,51207799
217,53495209
217,46597045
217,56475848
217,56282447
216,316074723
217,52822378
217,48330438
217,80725540
216,256157531
217,53132577
217,45761207
217,51266570
217,48372820
217,46120095
217,45593059
217,47361372
217,54739503
217,68433529
216,251235544
217,52238831
217,48129287
217,46194667
217,306457834
217,48360049
217,42556656
217,46838391
217,52014773
217,45654374
217,45959536
217,55383532
217,46424546
217,42797131
217,50552506
217,39485896
217,52042493
217,50074697
217,66314128
217,50194394
217,62581394
217,56835986
217,54128212
217,94221878
216,233503237
217,49907413
217,94411846
217,49212471
217,47498768
217,39104395
217,44026442
216,248214057
217,50272341
217,70196769
217,44435078
217,52840950
217,64717853
217,47749579
217,52148505
217,51888153
217,46175944
217,50522065
217,53942140
217,65755136
216,276114834
216,283591137
217,51524441
217,56017768
217,46457458
217,48365842
217,76118698
217,50874497
217,54253233
217,49115137
217,54950248
217,44978879
217,61135035
217,43597796
217,42402879
216,230646095
217,54283259
217,44369801
217,49972594
217,79519221
217,44652860
217,39901076
217,53064114
217,88065246
217,49935593
217,42987000
217,49290934
217,46126162
216,328939848
217,43916856
217,50052339
216,305015940
217,61050279
217,48830933
217,52729649
216,233940511
217,47959970
217,47908834
217,49413737
217,54456272
217,47082429
217,49368646
217,62830871
217,52880636
217,62665002
217,41812964
217,46960485
217,49433688
217,45639737
217,43419153
217,91805863
217,50177350
217,45950308
217,54423227
216,317828073
217,43133700
217,52939708
217,45424751
217,51027126
217,50954867
217,41534325
217,44112298
217,44876280
217,56355352
217,41575674
217,40343388
217,44609565
217,56707615
217,52035531
217,54729204
217,51281936
217,105148537
217,34554893
217,44748522
217,44625387
217,44595126
216,404529393
217,53204139
217,44414439
217,46396733
217,56416211
216,231506618
217,49399899
217,47127893
217,51820242
217,42353041
216,242053063
217,53624278
217,46250053
217,46245671
217,42914409
217,44848246
217,59383035
216,315613076
217,41549907
216,243335121
217,46132197
217,45714718
217,47837170
217,48523633
217,49751602
217,53317752
217,46393370
217,51272077
217,46426504
217,48243052
217,69971160
217,47643667
217,47497463
217,60397206
217,48016135
217,40962005
217,48766878
217,46156242
217,42121219
217,44342733
217,38464485
217,45355948
217,50571489
217,47887083
217,46020183
217,52419717
217,61572075
217,50268285
217,44052242
217,48417727
217,49104105
217,48691833
217,34466799
217,41136539
217,49070605
216,288837008
217,44785235
217,43490250
217,59732644
217,70369649
217,49662672
217,76170380
217,49177086
216,260993831
217,45333844
217,47551171
217,47104136
217,53145117
217,47753387
217,44691728
217,100317394
217,52794564
217,50644743
217,67136566
217,50584884
217,54229127
217,46212306
217,45614434
217,50916209
217,89135413
217,69013468
217,53696562
217,52848464
217,57458462
217,122001321
217,54227799
217,54681031
216,285425214
217,51589456
216,295900635
217,53843267
217,35689751
217,42004299
217,53554207
217,45963438
217,57675781
217,49411994
217,50916912
217,48341335
217,40550559
217,57625126
217,74584313
217,50642267
217,77846899
217,70900609
217,51567484
217,56973815
217,53869757
217,63357405
217,48400824
217,49291918
217,42719988
217,56952377
217,46038812
217,51093560
217,78950104
217,69968619
217,139321619
217,57634993
217,49155181
217,48617482
217,51652934
217,56955425
217,47907115
217,48139922
217,54992093
217,40810064
217,70389216
217,40097923
217,47390098
217,47325774
217,45653523
217,47541200
217,50801842
217,67690138
217,69102821
217,38144608
217,40882278
217,50314095
217,58951395
217,46167317
217,43991745
217,44849092
217,56423045
217,53505721
217,63048672
217,40013782
217,54804322
217,42704705
217,49833798
217,48743406
217,42645128
217,46433417
217,79402557
217,40764345
217,82678765
217,47395448
217,53698287
217,46085187
217,79121548
216,262680388
217,46108352
217,47942818
217,45912780
217,62359483
217,43474147
217,182793921
216,297347883
217,49214367
217,49849868
216,284951608
217,41093878
217,49353072
217,42688856
217,41237293
217,46452311
217,53777233
217,51639309
217,97280478
217,48880267
217,49175828
217,44912469
217,42269336
217,40203380
217,51713218
217,44405839
217,49935481
217,81071214
217,53405320
217,52379811
217,50978928
217,57598506
217,52742122
216,231801454
217,52577165
217,46942997
217,46812129
217,46077754
217,49759233
217,50583668
217,45496666
217,43280640
217,48747056
217,44775418
217,46031939
217,44540691
217,77077409
217,49556271
217,53747504
217,58775188
217,141639104
217,42455133
217,42006342
217,47721128
216,242848802
217,46570812
217,55237112
217,42703208
217,59363278
217,42217405
217,54410795
216,258278043
217,48084285
217,53361682
216,323010721
217,46851767
217,45284298
217,45549028
216,262884211
217,41970857
217,47955364
217,56270514
217,49215708
217,53802739
217,41869595
217,68739824
217,56153177
217,42311059
217,48120265
217,44021975
217,57019740
217,47932502
217,47968855
217,53394974
217,42362368
217,57925695
217,44326380
217,65887898
217,43186499
217,56535960
217,88960402
217,40218611
217,45293558
216,293786635
217,46420598
217,48548917
217,50722381
217,47632656
217,69428674
217,48900411
217,62641086
217,50199614
217,41571182
217,35570648
217,173420605
217,45005302
217,41736871
217,50352754
217,50187289
217,46907989
217,43604323
217,247925678
217,49638031
217,43098191
217,55456445
217,49949078
217,48280573
217,46294296
217,42040702
216,315022716
216,257125097
217,50184069
217,58689344
217,43355975
217,46357219
217,57577183
217,47795423
217,49508742
217,58548773
216,264446741
217,65105354
217,45182649
217,44310128
216,265121568
217,43801982
217,39564979
217,46426136
217,50615612
217,44656562
217,44985695
217,50482600
217,44859091
217,59900331
217,63028701
217,56260524
216,217174634
217,43834779
217,49809502
217,64680610
217,54006543
217,46771273
216,238882453
217,53078930
217,51983249
217,49391651
217,47440576
217,42508774
216,251797814
217,52481884
217,48072770
217,63164437
217,84274725
217,56659562
217,49753997
217,49990862
217,81129998
217,39816536
217,52584608
217,51700304
217,40673141
217,50041658
217,45730090
217,47222740
217,50165426
217,67388647
217,40070424
217,44099192
217,73079317
217,47884628
217,44238091
217,50639460
217,47362235
217,46034648
217,46105977
217,46962493
217,47980225
217,53132021
217,41087877
216,252417916
217,50209798
217,45284802
216,302063498
217,88708069
217,78369806
217,45392732
217,55262841
217,54410035
217,49841920
217,61355636
217,45628835
217,37286389
217,47093894
217,47939308
217,47658918
217,48535186
217,47934098
216,287737445
217,56496159
217,36422541
217,52185386
217,48972768
217,74245090
217,40100282
217,46158989
217,43039071
217,77835104
216,304457730
217,47563669
217,41015112
217,66570012
217,47541380
217,49880298
217,39852705
217,50137934
217,47807101
217,48050982
217,55565835
217,51500322
217,42289081
216,288290442
217,111176954
217,50729233
217,45696555
217,50047867
216,237106915
217,71007790
217,45134342
217,114414960
217,43961700
216,274712745
217,51536546
217,71499014
217,65114009
217,45797433
217,45616939
217,99100245
216,294557022
217,44043095
217,45109866
217,45600618
217,43296201
217,49933348
217,72268976
217,68951872
217,47641900
217,40158732
217,54096570
217,201584058
217,47799965
217,47706673
217,47428948
217,54037237
217,46094881
217,60504987
217,71372816
217,48918677
217,48510154
217,45665909
217,53056984
217,44156359
217,73919485
217,46902662
217,46287218
216,228645797
217,251978527
217,42891101
217,49475953
217,47584872
217,53638812
217,46341659
217,47934823
217,48855935
217,48625301
217,46199970
217,61471591
217,45636801
217,43974100
216,252774839
217,52190288
217,94113771
217,57378332
217,46076993
217,42278640
217,49861654
217,42204901
217,52074337
217,49252188
217,46924003
217,39686318
217,88253217
217,47316401
217,46101489
217,41086391
217,43629672
217,53745743
217,53738650
217,64305869
217,51266257
217,38995576
217,45936388
217,50471307
217,79558561
217,49122392
217,72734486
217,93214662
217,56038176
217,44977991
217,48665928
217,51155438
217,44782702
217,49014709
217,49084856
217,46993056
217,47469940
217,47509995
217,80863449
217,61523666
217,52676922
217,41616865
217,49408998
217,49125405
217,47053946
217,48547011
217,48713113
217,42092325
217,49246583
217,45202598
217,48177543
217,44411188
217,49097854
217,46677864
217,300328340
217,45626223
217,46375880
217,50624130
217,54922593
217,54522391
217,47140393
217,51352716
217,34642158
217,39796018
217,71910881
217,45606305
217,40767572
217,62433642
216,240232196
217,48571226
217,286322443
217,46666889
217,52154068
217,57172339
217,48682800
217,48335494
217,98148166
217,39884981
217,49038575
217,46116966
217,70920237
217,44640974
217,47149124
217,45363709
217,52712865
217,51319996
217,45826442
217,76056577
217,50247870
217,46210938
216,282927062
217,47609585
217,70914689
217,48128894
217,45398128
217,56071754
217,80732110
217,45592921
217,48100860
217,52095635
217,46498796
217,45014447
216,294517377
216,217948244
217,44470374
217,53010012
217,46228320
