\relax 
\providecommand\hyper@newdestlabel[2]{}
\providecommand\HyperFirstAtBeginDocument{\AtBeginDocument}
\HyperFirstAtBeginDocument{\ifx\hyper@anchor\@undefined
\global\let\oldcontentsline\contentsline
\gdef\contentsline#1#2#3#4{\oldcontentsline{#1}{#2}{#3}}
\global\let\oldnewlabel\newlabel
\gdef\newlabel#1#2{\newlabelxx{#1}#2}
\gdef\newlabelxx#1#2#3#4#5#6{\oldnewlabel{#1}{{#2}{#3}}}
\AtEndDocument{\ifx\hyper@anchor\@undefined
\let\contentsline\oldcontentsline
\let\newlabel\oldnewlabel
\fi}
\fi}
\global\let\hyper@last\relax 
\gdef\HyperFirstAtBeginDocument#1{#1}
\providecommand\HyField@AuxAddToFields[1]{}
\providecommand\HyField@AuxAddToCoFields[2]{}
\@nameuse{bbl@beforestart}
\catcode `"\active 
\catcode `-\active 
\citation{Impagliazzo1999}
\citation{Bhattacharjee2017}
\citation{Loviskova2015}
\citation{Fu2018}
\citation{Bhattacharjee2017}
\babel@aux{czech}{}
\@writefile{toc}{\contentsline {section}{\numberline {1}Úvod}{1}{section.1}\protected@file@percent }
\@writefile{toc}{\contentsline {section}{\numberline {2}SAT řešiče}{1}{section.2}\protected@file@percent }
\@writefile{toc}{\contentsline {section}{\numberline {3}Cíle}{1}{section.3}\protected@file@percent }
\citation{Bhattacharjee2017}
\citation{satlibbench}
\citation{Bhattacharjee2017}
\citation{Loviskova2015}
\citation{Fu2018}
\bibstyle{acm}
\bibdata{references}
\bibcite{satlibbench}{1}
\bibcite{Bhattacharjee2017}{2}
\bibcite{Fu2018}{3}
\bibcite{Impagliazzo1999}{4}
\bibcite{Loviskova2015}{5}
\@writefile{toc}{\contentsline {section}{\numberline {4}Genetický Algoritmus}{2}{section.4}\protected@file@percent }
\@writefile{toc}{\contentsline {section}{\numberline {5}Demo}{2}{section.5}\protected@file@percent }
\@writefile{toc}{\contentsline {section}{\numberline {6}Instance}{2}{section.6}\protected@file@percent }
\@writefile{toc}{\contentsline {section}{\numberline {7}Co dál}{2}{section.7}\protected@file@percent }
